[{"line":1,"elements":[{"line":3,"name":"using url and path in test case","description":"","id":"using-url-and-path-in-test-case","type":"scenario","keyword":"Scenario","steps":[{"name":"url \"https:\/\/reqres.in\/\"","result":{"duration":2924600,"status":"passed"},"match":{"location":"karate","arguments":[]},"keyword":"Given","line":5,"doc_string":{"content_type":"","value":"16:44:44.151 skipping bootstrap configuration: could not find or read file: classpath:karate-config.js","line":5}},{"name":"path \"\/api\/users?page=2\"","result":{"duration":10986600,"status":"passed"},"match":{"location":"karate","arguments":[]},"keyword":"And","line":6},{"name":"method GET","result":{"duration":815078200,"status":"passed"},"match":{"location":"karate","arguments":[]},"keyword":"And","line":7,"doc_string":{"content_type":"","value":"16:44:44.539 request:\n1 > GET https:\/\/reqres.in\/api\/users%3Fpage=2\n1 > Accept-Encoding: gzip,deflate\n1 > Connection: Keep-Alive\n1 > Host: reqres.in\n1 > User-Agent: Apache-HttpClient\/4.5.12 (Java\/1.8.0_251)\n\n16:44:44.961 response time in milliseconds: 419.06\n1 < 200\n1 < Access-Control-Allow-Origin: *\n1 < Age: 1922\n1 < CF-Cache-Status: HIT\n1 < CF-RAY: 5fb4a044caa919e1-SIN\n1 < Cache-Control: max-age=14400\n1 < Connection: keep-alive\n1 < Content-Type: application\/json; charset=utf-8\n1 < Date: Wed, 02 Dec 2020 11:14:44 GMT\n1 < Etag: W\/\"2c1-N6Rqerxquq2kgQhL51EiSg4x0R8\"\n1 < Expect-CT: max-age=604800, report-uri=\"https:\/\/report-uri.cloudflare.com\/cdn-cgi\/beacon\/expect-ct\"\n1 < NEL: {\"report_to\":\"cf-nel\",\"max_age\":604800}\n1 < Report-To: {\"endpoints\":[{\"url\":\"https:\\\/\\\/a.nel.cloudflare.com\\\/report?s=jvzDRKvMDIJFVeG7hVo8f5SSxzHj4TiD3pQ0tfwrgN%2FhQs87PlWs8DG%2Bp1Z4g8cm2joaZYLfrqb9j2W0N20a7nSCyAsYHifQyj4%3D\"}],\"group\":\"cf-nel\",\"max_age\":604800}\n1 < Server: cloudflare\n1 < Set-Cookie: __cfduid=d1dc9488705589a974159316f4e3ca1601606907684; expires=Fri, 01-Jan-21 11:14:44 GMT; path=\/; domain=.reqres.in; HttpOnly; SameSite=Lax; Secure\n1 < Transfer-Encoding: chunked\n1 < Vary: Accept-Encoding\n1 < Via: 1.1 vegur\n1 < X-Powered-By: Express\n1 < cf-request-id: 06c4c27f02000019e14a922000000001\n{\"page\":1,\"per_page\":6,\"total\":12,\"total_pages\":2,\"data\":[{\"id\":1,\"name\":\"cerulean\",\"year\":2000,\"color\":\"#98B2D1\",\"pantone_value\":\"15-4020\"},{\"id\":2,\"name\":\"fuchsia rose\",\"year\":2001,\"color\":\"#C74375\",\"pantone_value\":\"17-2031\"},{\"id\":3,\"name\":\"true red\",\"year\":2002,\"color\":\"#BF1932\",\"pantone_value\":\"19-1664\"},{\"id\":4,\"name\":\"aqua sky\",\"year\":2003,\"color\":\"#7BC4C4\",\"pantone_value\":\"14-4811\"},{\"id\":5,\"name\":\"tigerlily\",\"year\":2004,\"color\":\"#E2583E\",\"pantone_value\":\"17-1456\"},{\"id\":6,\"name\":\"blue turquoise\",\"year\":2005,\"color\":\"#53B0AE\",\"pantone_value\":\"15-5217\"}],\"support\":{\"url\":\"https:\/\/reqres.in\/#support-heading\",\"text\":\"To keep ReqRes free, contributions towards server costs are appreciated!\"}}","line":7}},{"name":"status 200","result":{"duration":25800,"status":"passed"},"match":{"location":"karate","arguments":[]},"keyword":"Then","line":8},{"name":"print response","result":{"duration":8568200,"status":"passed"},"match":{"location":"karate","arguments":[]},"keyword":"*","line":9,"doc_string":{"content_type":"","value":"16:44:45.002 [print] {\n  \"per_page\": 6,\n  \"total\": 12,\n  \"data\": [\n    {\n      \"color\": \"#98B2D1\",\n      \"year\": 2000,\n      \"name\": \"cerulean\",\n      \"id\": 1,\n      \"pantone_value\": \"15-4020\"\n    },\n    {\n      \"color\": \"#C74375\",\n      \"year\": 2001,\n      \"name\": \"fuchsia rose\",\n      \"id\": 2,\n      \"pantone_value\": \"17-2031\"\n    },\n    {\n      \"color\": \"#BF1932\",\n      \"year\": 2002,\n      \"name\": \"true red\",\n      \"id\": 3,\n      \"pantone_value\": \"19-1664\"\n    },\n    {\n      \"color\": \"#7BC4C4\",\n      \"year\": 2003,\n      \"name\": \"aqua sky\",\n      \"id\": 4,\n      \"pantone_value\": \"14-4811\"\n    },\n    {\n      \"color\": \"#E2583E\",\n      \"year\": 2004,\n      \"name\": \"tigerlily\",\n      \"id\": 5,\n      \"pantone_value\": \"17-1456\"\n    },\n    {\n      \"color\": \"#53B0AE\",\n      \"year\": 2005,\n      \"name\": \"blue turquoise\",\n      \"id\": 6,\n      \"pantone_value\": \"15-5217\"\n    }\n  ],\n  \"page\": 1,\n  \"total_pages\": 2,\n  \"support\": {\n    \"text\": \"To keep ReqRes free, contributions towards server costs are appreciated!\",\n    \"url\": \"https:\/\/reqres.in\/#support-heading\"\n  }\n}","line":9}},{"name":"match response.page == \"##\"","result":{"duration":4498600,"status":"passed"},"match":{"location":"karate","arguments":[]},"keyword":"And","line":10}]}],"name":"src\/test\/java\/featureFiles\/karate09.feature","description":"karate test suite 09\nsing url and path","id":"karate-test-suite-09","keyword":"Feature","uri":"src\/test\/java\/featureFiles\/karate09.feature"}]